"most_frequent_color","keyword","W","U","B","R","G","C"
"W","Vigilance","184.15","13.9","10.32","13.48","53.15","13"
"W","First strike","120.2","7.87","30.03","83.2","9.7","15"
"W","Protection","77.03","18.87","30.03","19.03","35.03","6"
"W","Lifelink","73.78","4.12","52.78","2.53","3.78","3"
"W","Double strike","26.17","0.5","2.33","20.67","1.33","0"
"U","Flying","556.43","649.1","383.43","221.1","70.93","81"
"U","Enchant","227.37","248.37","189.37","145.7","163.2","2"
"U","Mill","1","129.5","64.33","6.33","21.83","38"
"U","Flash","54.53","103.87","29.53","20.53","45.53","18"
"U","Scry","17.5","79","19.5","24.5","14.5","36"
"B","Deathtouch","2.75","7.42","83.08","1.17","34.58","4"
"B","Menace","2","2.67","49.83","33","1.5","4"
"B","Fear","1","1.5","32.5","2","0","2"
"B","Swampwalk","2","0.83","26.83","0.83","10.5","0"
"B","Madness","2","7","23.5","16.5","2","0"
"R","Haste","11.02","9.77","39.35","240.85","28.02","22"
"R","Flashback","17","22","19","31","24","1"
"R","Echo","3","1","2","24","14","6"
"R","Mountainwalk","2","0","0","14","1","0"
"R","Raid","3","8","7","12","0","0"
"G","Trample","22.33","23.58","54.25","123.25","245.58","43"
"G","Reach","7.83","0.5","3.83","13.17","121.67","4"
"G","Fight","1.5","2.83","1.5","16.83","47.33","6"
"G","Landwalk","7","23.33","29.33","19.33","46","0"
"G","Kicker","17.5","20.5","20","29","33","1"
"C","Equip","8","2.33","3.83","5.83","3","250"
"C","Devoid","0","0","0","0","0","98"
"C","Crew","1","1","0","1","0","27"
"C","Indestructible","11","5","8","7","11","23"
"C","Imprint","1","1","0","1","0","20"
